%YAML 1.1
%TAG !u! tag:unity3d.com,2011:
--- !u!1045 &1
EditorBuildSettings:
  m_ObjectHideFlags: 0
  serializedVersion: 2
  m_Scenes:
  - enabled: 1
    path: Assets/Scenes/MenuPrincipal.unity
    guid: b5915dc670f6ab44088032e0ade8d755
  - enabled: 1
    path: Assets/Scenes/Story/StoryIntro.unity
    guid: af5b2feb7ddc8e34190eb02747108e7a
  - enabled: 1
    path: Assets/Scenes/Didacticiel.unity
    guid: 13bfd5de64c6b814fac63d33192bb090
  - enabled: 1
    path: Assets/Scenes/Niveau1.unity
    guid: c18869a2fbe819945a73344085d3ad49
  - enabled: 1
    path: Assets/Scenes/Story/Story12.unity
    guid: 99ac9b14b31c0714d990266d1ec102f5
  - enabled: 1
    path: Assets/Scenes/Niveau2.unity
    guid: 98711ce24f0a578468ec9e81d6c94d4c
  - enabled: 1
    path: Assets/Scenes/Story/Story23.unity
    guid: eab50bbb939c57a49bbf261a3d42d5cf
  - enabled: 1
    path: Assets/Scenes/Niveau3.unity
    guid: 151d46042a1479840a6704794fbfac13
  - enabled: 1
    path: Assets/Scenes/Story/Story34.unity
    guid: 6a75e687498d93449b4edd7eea1b2c18
  - enabled: 1
    path: Assets/Scenes/Niveau4.unity
    guid: 77801ca34688a8f47ae65d40dfd217b5
  - enabled: 1
    path: Assets/Scenes/Story/Story45.unity
    guid: 01de035f8da94ad43aa21cd3ebf0911a
  - enabled: 1
    path: Assets/Scenes/Niveau5.unity
    guid: 6dc4b3f7feeaa99449645f4f8e70df14
  - enabled: 1
    path: Assets/Scenes/Story/Story56.unity
    guid: cd54b00da99a9e641880e877cb32e8b4
  - enabled: 1
    path: Assets/Scenes/Niveau6.unity
    guid: cb26979e4a66e634c819b526a979b960
  - enabled: 1
    path: Assets/Scenes/Story/StoryFin.unity
    guid: 46769838e2f3ea54ab435da7869ee675
  m_configObjects: {}
